1188,97,40
1:31,10
2:21,10
3:42,9
4:18,2
5:10,1
6:10,4
7:32,3
8:49,4
9:29,1
10:26,7
11:41,9
12:28,4
13:13,6
14:13,7
15:42,4
16:50,7
17:38,1
18:10,5
19:29,1
20:22,2
21:18,10
22:46,8
23:41,5
24:26,1
25:42,5
26:19,8
27:43,10
28:15,4
29:37,7
30:31,8
31:11,9
32:24,7
33:29,8
34:13,5
35:44,3
36:40,9
37:14,5
38:43,4
39:33,8
40:44,10
